ANO
…
class_distribution <- ANO.geo5 %>%
  st_drop_geometry() %>%
  select(all_of(vars)) %>%
  pivot_longer(cols = everything(),
               names_to = "Variable",
               values_to = "Kvalitet") %>%
  filter(!is.na(Kvalitet)) %>%
  count(Variable, Kvalitet) %>%
  arrange(Variable, desc(n))

class_distribution

# A tibble: 22 × 3
   Variable     Kvalitet     n
   <chr>        <chr>    <int>
 1 1AG-B_klass  God         61
 2 1AG-B_klass  Moderat     14
 3 1AG-B_klass  Daarlig      3
 4 7FA_klass    God        298
 5 7FA_klass    Moderat      2
 6 7GR-GI_klass God        158
 7 7GR-GI_klass Daarlig      5
 8 7GR-GI_klass Moderat      2
 9 7JB-BA_klass God         84
10 7JB-BA_klass Moderat     64
# ℹ 12 more rows
…
per_type

# A tibble: 64 × 4
   ntyp_clean `primary variables from mdir` `variables in ANO data`
   <chr>                              <int>                   <int>
 1 A1                                     2                       2
 2 A10                                    3                       3
 3 A5                                     3                       3
 4 A7                                     1                       0
 5 A8                                     5                       4
 6 B3.1                                   4                       3
 7 B3.2                                   4                       3
 8 B4.1                                   4                       3
 9 B4.2                                   4                       3
10 B5.1                                   4                       3
# ℹ 54 more rows
# ℹ 1 more variable: `variables that has data` <int>
…
species_summary

# A tibble: 4,806 × 11
   ntyp_final Classification art_navn     total_plots n_plots_species perc_plots
   <chr>      <chr>          <chr>              <int>           <int>      <dbl>
 1 A1         God            poa alpina             1               1        100
 2 A1         God            saxifraga o…           1               1        100
 3 A1         God            silene acau…           1               1        100
 4 A10        God            arctous alp…           1               1        100
 5 A10        God            empetrum ni…           1               1        100
 6 A10        God            vaccinium u…           1               1        100
 7 A10        God            vaccinium v…           1               1        100
 8 A5         God            agrostis ca…           4               2         50
 9 A5         God            atriplex li…           4               1         25
10 A5         God            avenella fl…           4               1         25
# ℹ 4,796 more rows
# ℹ 5 more variables: median_cover_present <dbl>, mean_cover_all <dbl>,
#   max_cover <dbl>, min_cover <dbl>, range_cover <chr>
…
